dist	conv	donor	tract	spi	bord	rest
100	W>S	13441	38030	152	2307	1
100	S>W	13372	38087	53	2217	2
100	W>W	1299	3651	4	219	1
100	S>S	1666	4514	17	279	0
200	W>S	13441	38030	146	1994	7
200	S>W	13372	38087	50	1854	19
200	W>W	1299	3651	4	181	2
200	S>S	1666	4514	17	240	1
500	W>S	13441	38030	140	1670	24
500	S>W	13372	38087	45	1610	57
500	W>W	1299	3651	3	154	3
500	S>S	1666	4514	17	192	5
1000	W>S	13441	38030	135	1595	37
1000	S>W	13372	38087	43	1508	68
1000	W>W	1299	3651	3	148	2
1000	S>S	1666	4514	17	179	6
2000	W>S	13441	38030	128	1516	46
2000	S>W	13372	38087	40	1425	74
2000	W>W	1299	3651	3	144	2
2000	S>S	1666	4514	16	175	6
5000	W>S	13441	38030	115	1391	47
5000	S>W	13372	38087	36	1289	66
5000	W>W	1299	3651	3	137	1
5000	S>S	1666	4514	15	167	5
10000	W>S	13441	38030	105	1246	38
10000	S>W	13372	38087	35	1146	56
10000	W>W	1299	3651	3	124	1
10000	S>S	1666	4514	15	136	7
20000	W>S	13441	38030	90	1065	32
20000	S>W	13372	38087	33	956	31
20000	W>W	1299	3651	3	106	1
20000	S>S	1666	4514	13	117	4
50000	W>S	13441	38030	57	731	0
50000	S>W	13372	38087	21	638	0
50000	W>W	1299	3651	2	74	0
50000	S>S	1666	4514	10	79	0
